             .  ,   ,      ,   .
           .        ,        . 
      ,       .         ,       .
       ,   ,      .       ,      ,       . 
 ,        -     ,         ,          . 
   ,            .      ,      . 
    ,  .                .       ,      . 
       ,   -   ,        ,    .            .
      .          ,  ,      .       ,    . 
        .          ,        .     . 
     ,        ,         .            .
    ,      ,   .      20 ,     , ,         . 
      .   ,  ,    ,    . 
     ,    ,  ,    ,    . ,        ,    ,    .
  ,      ,       . ,    ,    ,   ,    . 
,  ,    ,  ,       .    ,      ,        .
                .       ,        . 
  -,        .      ,   .  -     . 
      . Ÿ         ,    . 
   (  ) ,     ,   .  ,       ,          . 
    ,       .           . 
      .     ,          ,   ,    .        . 
         .              . 
         . Ÿ           . 
     ,   ,    .         ,   ,   . 
        .      ,   ,      ,     .
, ,    ,  -  .     , ,  ,      ,  -    .
     ,  -  .         . ,    ,       ,     .
 -    ,    .     ,   ,  -   .      ,      .
,        ,      .       ,  -   .        ,   .
,  -      .     ,     ,   ,  .        .
        ,  .           ,      .
   ,         . ,       ,        .
 -    ,         ,      ,    .
  ,     .        ,  ,            . 
 -    .         . -         . 
     ,         .        ,    . 
      . -     ,      ,     .   ,        . 
   ,           .      ,        . 
   ,      ,            .
     10           .         ,      . 
     ,        ,     .        ,  ,    -   . 
       .        ,       .         ,      . 
,    . Ÿ   :   ,   ,     ,        ,  -    . 
        . ,        .    ,  ,      . 
            ,      ,       .   ,      ,   .
    ,      . , ,    , ,       ,     . 
     ,     , . ,        .  ,  , - ,           . 
         .   ,         ,         .
 -       .         .     . 
     .  ,  ,               , -  . 
    ,  ,        .    ,      ,   ,    ,       . 
,      -  . ,      ,         .
     ,   ,         .  ,        . 
     ,  ,  -      ,       ,    .   ,      . 
            . Ÿ        ,            . 
, -  ,    ,            . 
,     .   .   ,      . 
      ,   ,        -,    . 
     .    ,      .          . 
  ,         .       ,       . 
,   '',         . Ÿ           .       ,    ,         . 
        ,        .       , , ,    ,  -  . 
    ,             1162 ..( ). , ,    , '' ,        .
    ,   ,        .       ,           . 
        ,       .        ,  ,   .         .
        ,      .         ,    . 
    .           ,     .
           .  ,    ,      ׸    . 
 ,        ,        . 
        ,        . ,  ,    ,           .      .
          .       . 
    ' ',          ,    . ,  ,         ,      . 
       ,             .
     ,   ,   .        ,      ,   .
   ,    ,    .  ,           ,    .     ,    .     ,    .
    ,   -   .  ,         ,          .
     ,      . Ÿ  ,        .      .
      ,     ,  ,        ,    ,   ,      .
   ,  ,       ' '   .    ,   , ,     . 
   ,         .      -. ,       ,     .     .
 -    ,     .      , ,     ,    . 
    .      , ,   .      ,     .
    ,    - ,       ,    .   ,    ' '  .
       ,  ,       ,      .         . 
      ,       ,          .    
      ,      ,       .
    ,     .  ,   ,   ,        . 
    ,           ,    .            .
  -,      -,   ,    .  ,      .
    ,    ,      ,        . 
 ,     ,   ,       ,     .         .
        ,      ,      .
     ,      ,          .              .
,   -     .    ,      ,     .   ..
       ,     ,     .   ,    ,       . 
      ,       ,   .      ,        .
    ,        ,       .
,    ,   -   .   , ,  ,     - - .
 -       .         ,          .     
    ,       .        .
     -.    ,    ,      .  ,    ,    ,   ,   .
  ,             .          ,      .
     .         ,         . 
  , ,      .  ,     ,     ,     ,   .
  -     .    - ,       .
   ,      .       .          . 
       ,    ,     .   ,     ,  ,         .
-   ,    .     ,     .
    . Ÿ       .   ,      ,    ,      .   ,    ,    .
         ,      ,   ,    . 
 ,   -  ,   .      ,         .
  ,       .          ,   -  .
      ,     .     .    (   )  ,         .
       ,      .       ,     .  ,       . 
        ,  a   ,                .
   -   ,       ,   ,   .        ,    .
      ,   , .    ,        . 
    ,          .           . 
        ,    .        ,     . 
       ,   ,      .          ,    ,  . 
   ,     .   ,   .       ,       .
-   -    ,           .        ,  .
           .  ,         ,    . 
       ,   ,       ,    ,      .
  ,  , ,  ,   ,       ,       .
 ,     ,  ,   ,      .           .
  ,  ,        ,       .    .
      .             .
     ,       . Ÿ         .
         .    ,    ,     .
    ,    .        .
    ,      . ,         .
  ,      ,   .    ,   ,  ,     .
,       ,     .  ,          .
   ,      ,         .
   ,        .  ,           .
 ,    ,          . ,       ,    .
   ,   ,   ,     .       .       .
 ,        .        ,      .   ,   .
   ,         .  ,     . -  ,       .      .
     ,  -  .    . ,      .      ,    .
      ,   .  ,    ,        .
  .    .         ,      .
  ,       ,      . 
        ,           ,     .
   ,          ,   . ,       ,      .
   ,         .     ,     ,   .
    .        ,      .      . ,    ,   .
  ,      ,     ,       .  ,    ,     .
    ,         .
 ,         ,        .
   ,           .    ,        . ,       .
    ,       .  ,       .
    ,   ,        .
        ,   ,     . ,         ,      .
    ,        .       ,    .
  -  .    ,           .
    ,          .  ,  ,   ,      .
 
 
 
 
